Travaux Pratiques de Biométrie 2
…
%in% : permet de tester si l’élément de gauche est contenu dans la série d’éléments fournie à droite. Par exemple 2 %in% 1:5 renvoie TRUE, mais 2 %in% 5:10 renvoie FALSE.

| : opérateur logique OU. Permet de tester qu’une condition OU une autre est remplie.

& : opérateur logique ET. Permet de tester qu’une condition ET une autre sont remplies.

Voyons comment utiliser ces opérateurs avec la fonction filter().

Dans le tableau flights, tous les vols prévus ont-ils effectivement décolé ? Une bonne façon de le savoir est de regarder si, pour la variable dep_time (heure de décollage), des données manquantes sont présentes :

flights %>% 
  filter(is.na(dep_time))

# A tibble: 8,255 x 19
    year month   day dep_time sched_dep_time dep_delay arr_time sched_arr_time
   <int> <int> <int>    <int>          <int>     <dbl>    <int>          <int>
 1  2013     1     1       NA           1630        NA       NA           1815
 2  2013     1     1       NA           1935        NA       NA           2240
 3  2013     1     1       NA           1500        NA       NA           1825
 4  2013     1     1       NA            600        NA       NA            901
 5  2013     1     2       NA           1540        NA       NA           1747
 6  2013     1     2       NA           1620        NA       NA           1746
 7  2013     1     2       NA           1355        NA       NA           1459
 8  2013     1     2       NA           1420        NA       NA           1644
 9  2013     1     2       NA           1321        NA       NA           1536
10  2013     1     2       NA           1545        NA       NA           1910
# ... with 8,245 more rows, and 11 more variables: arr_delay <dbl>,
#   carrier <chr>, flight <int>, tailnum <chr>, origin <chr>, dest <chr>,
#   air_time <dbl>, distance <dbl>, hour <dbl>, minute <dbl>, time_hour <dttm>

Il y a donc 8255 vols qui n’ont pas décollé. Dans le même ordre d’idée, y a t-il des vols qui ont décollé mais qui ne sont pas arrivés à destination ? Là encore, une façon d’obtenir cette information est de sélectionner les vols qui ont décollé (donc pour lesquels l’heure de décollage n’est pas manquante), mais pour lesquels l’heure d’atterrissage est manquante :

flights %>% 
  filter(!is.na(dep_time),
         is.na(arr_time))

# A tibble: 458 x 19
    year month   day dep_time sched_dep_time dep_delay arr_time sched_arr_time
   <int> <int> <int>    <int>          <int>     <dbl>    <int>          <int>
 1  2013     1     1     2016           1930        46       NA           2220
 2  2013     1     2     2041           2045        -4       NA           2359
 3  2013     1     2     2145           2129        16       NA             33
 4  2013     1     9      615            615         0       NA            855
 5  2013     1     9     2042           2040         2       NA           2357
 6  2013     1    11     1344           1350        -6       NA           1518
 7  2013     1    13     1907           1634       153       NA           1837
 8  2013     1    13     2239           2159        40       NA             30
 9  2013     1    16      837            840        -3       NA           1030
10  2013     1    25     1452           1500        -8       NA           1619
# ... with 448 more rows, and 11 more variables: arr_delay <dbl>,
#   carrier <chr>, flight <int>, tailnum <chr>, origin <chr>, dest <chr>,
#   air_time <dbl>, distance <dbl>, hour <dbl>, minute <dbl>, time_hour <dttm>

Notez l’utilisation du ! pour la première condition. Cette syntaxe est équivalente à :

flights %>% 
  filter(!is.na(dep_time) & is.na(arr_time))

# A tibble: 458 x 19
    year month   day dep_time sched_dep_time dep_delay arr_time sched_arr_time
   <int> <int> <int>    <int>          <int>     <dbl>    <int>          <int>
 1  2013     1     1     2016           1930        46       NA           2220
 2  2013     1     2     2041           2045        -4       NA           2359
 3  2013     1     2     2145           2129        16       NA             33
 4  2013     1     9      615            615         0       NA            855
 5  2013     1     9     2042           2040         2       NA           2357
 6  2013     1    11     1344           1350        -6       NA           1518
 7  2013     1    13     1907           1634       153       NA           1837
 8  2013     1    13     2239           2159        40       NA             30
 9  2013     1    16      837            840        -3       NA           1030
10  2013     1    25     1452           1500        -8       NA           1619
# ... with 448 more rows, and 11 more variables: arr_delay <dbl>,
#   carrier <chr>, flight <int>, tailnum <chr>, origin <chr>, dest <chr>,
#   air_time <dbl>, distance <dbl>, hour <dbl>, minute <dbl>, time_hour <dttm>
…
